Reading in and organising data
…
dim(pav_table)

[1]  1110 51415

NBS / NLR Genes

nbs <- read_tsv('./data/Lee.NBS.candidates.lst', col_names = c('Name', 'Class'))

# have to remove the .t1s 
nbs$Name <- gsub('.t1','', nbs$Name)
nbs

# A tibble: 486 x 2
   Name                   Class
   <chr>                  <chr>
 1 UWASoyPan00953         CN   
 2 GlymaLee.13G222900.1.p CN   
 3 GlymaLee.18G227000.1.p CN   
 4 GlymaLee.18G080600.1.p CN   
 5 GlymaLee.20G036200.1.p CN   
 6 UWASoyPan01876         CN   
 7 UWASoyPan04211         CN   
 8 GlymaLee.19G105400.1.p CN   
 9 GlymaLee.18G085100.1.p CN   
10 GlymaLee.11G142600.1.p CN   
# … with 476 more rows
…
groups$Group <-
  factor(
    groups$Group,
    levels = c('Wild',
               'Landrace',
               'Old cultivar',
               'Modern cultivar')
  )

names(groups)[names(groups) == 'Data-storage-ID'] = 'Line'

groups

# A tibble: 1,069 x 3
   Line       `PI-ID`   Group   
   <chr>      <chr>     <fct>   
 1 SRR1533284 PI416890  Landrace
 2 SRR1533282 PI323576  Landrace
 3 SRR1533292 PI157421  Landrace
 4 SRR1533216 PI594615  Landrace
 5 SRR1533239 PI603336  Landrace
 6 USB-108    PI165675  Landrace
 7 HNEX-13    PI253665D Landrace
 8 USB-382    PI603549  Landrace
 9 SRR1533236 PI587552  Landrace
10 SRR1533332 PI567293  Landrace
# … with 1,059 more rows

table(groups$Group)

           Wild        Landrace    Old cultivar Modern cultivar 
            157             723              46             143 

Yield

yield <- read_tsv('./data/yield.txt')
yield

# A tibble: 769 x 2
   Line    Yield
   <chr>   <dbl>
 1 USB-756 0.08 
 2 USB-014 0.09 
 3 USB-035 0.14 
 4 USB-499 0.15 
 5 USB-755 0.16 
 6 USB-047 0.17 
 7 USB-742 0.25 
 8 USB-227 0.26 
 9 USB-230 0.27 
10 USB043  0.290
# … with 759 more rows
…
Lyron Winderbaum

2021-03-11

summary(yield$Yield)

   Min. 1st Qu.  Median    Mean 3rd Qu.    Max. 
  0.080   1.630   2.180   2.188   2.740   4.480 

Protein

protein <- read_tsv('./data/protein_phenotype.txt')
protein

# A tibble: 962 x 2
   Line       Protein
   <chr>        <dbl>
 1 SRR1533182    56.8
 2 USB-129       53.9
 3 PI562534      53.9
 4 PI407228      53.6
 5 SRR1533175    53.6
 6 HNY-10        53.6
 7 USB-388       53.4
 8 PI378684B     53.2
 9 USB-014       53.1
10 PI424025B     53  
# … with 952 more rows
…
2021-03-11

summary(protein$Protein)

   Min. 1st Qu.  Median    Mean 3rd Qu.    Max. 
  32.50   42.33   44.20   44.57   46.48   56.80 

Seed weight

seed_weight <- read_tsv('./data/Seed_weight_Phenotype.txt', col_names = c('names', 'wt'))
names(seed_weight)[names(seed_weight) == 'names'] = 'Line'
seed_weight

# A tibble: 701 x 2
   Line     wt
   <chr> <dbl>
 1 BR-30  12.5
 2 For    11.7
 3 HN001  13.1
 4 HN002   7.8
 5 HN003   9.6
 6 HN005   8.1
 7 HN006   8.7
 8 HN007   8.1
 9 HN008  11.7
10 HN009  15  
# … with 691 more rows
…
Lyron Winderbaum

2021-03-11

summary(seed_weight$wt)

   Min. 1st Qu.  Median    Mean 3rd Qu.    Max. 
   1.00   10.10   13.20   12.89   15.90   32.80 

Oil content

oil <- read_tsv('./data/oil_phenotype.txt')
oil

# A tibble: 962 x 2
   Line         Oil
   <chr>      <dbl>
 1 SRR1533369  25.4
 2 SRR1533328  25.1
 3 HN080       24.7
 4 HN001       23.6
 5 HNEX-08     23.6
 6 USB-222     23.5
 7 USB022      23.5
 8 USB-039     23.5
 9 HNEX-23     23  
10 SRR1533444  22.9
# … with 952 more rows
…
Country

country <- read_csv('./data/Cultivar_vs_country.csv')
names(country)[names(country) == 'Data-storage-ID'] = 'Line'
names(country)[names(country) == 'Origin country'] = 'Country'
country$Continent <- countrycode(sourcevar = country[["Country"]],
                                 origin = "country.name",
                                 destination = "continent")

Warning in countrycode(sourcevar = country[["Country"]], origin = "country.name", : Some values were not matched unambiguously: Costa, ND

country

# A tibble: 1,110 x 4
   Line  `PI-ID`        Country Continent
   <chr> <chr>          <chr>   <chr>    
 1 AB-01 PI458020       Korea   Asia     
 2 AB-02 PI603713       China   Asia     
 3 BR-01 PI628809       Brazil  Americas 
 4 BR-02 BRS 232        Brazil  Americas 
 5 BR-03 PI675651       Brazil  Americas 
 6 BR-04 BRS 360RR      Brazil  Americas 
 7 BR-05 PI675666       Brazil  Americas 
 8 BR-06 PI675660       Brazil  Americas 
 9 BR-07 BRS Valiosa RR Brazil  Americas 
10 BR-08 BRSGO 8660     Brazil  Americas 
# … with 1,100 more rows
…
